\relax 
\providecommand\hyper@newdestlabel[2]{}
\providecommand\BKM@entry[2]{}
\providecommand\HyperFirstAtBeginDocument{\AtBeginDocument}
\HyperFirstAtBeginDocument{\ifx\hyper@anchor\@undefined
\global\let\oldcontentsline\contentsline
\gdef\contentsline#1#2#3#4{\oldcontentsline{#1}{#2}{#3}}
\global\let\oldnewlabel\newlabel
\gdef\newlabel#1#2{\newlabelxx{#1}#2}
\gdef\newlabelxx#1#2#3#4#5#6{\oldnewlabel{#1}{{#2}{#3}}}
\AtEndDocument{\ifx\hyper@anchor\@undefined
\let\contentsline\oldcontentsline
\let\newlabel\oldnewlabel
\fi}
\fi}
\global\let\hyper@last\relax 
\gdef\HyperFirstAtBeginDocument#1{#1}
\providecommand\HyField@AuxAddToFields[1]{}
\providecommand\HyField@AuxAddToCoFields[2]{}
\BKM@entry{id=1,dest={636F6E74656E74732E31},srcline={57}}{436F6E74656E7473}
\BKM@entry{id=2,dest={73656374696F6E2A2E34},srcline={64}}{496E74726F64756374696F6E}
\BKM@entry{id=3,dest={73656374696F6E2A2E35},srcline={75}}{417661696C6162696C697479}
\BKM@entry{id=4,dest={73656374696F6E2A2E36},srcline={82}}{436F6E646974696F6E73206F6620757365}
\newlabel{alphaassign-quickstart}{{}{1}{}{section*.1}{}}
\newlabel{contents}{{}{1}{}{section*.2}{}}
\newlabel{introduction}{{}{1}{Introduction}{section*.4}{}}
\@writefile{toc}{\contentsline {section}{Introduction}{1}{section*.4}}
\newlabel{availability}{{}{1}{Availability}{section*.5}{}}
\@writefile{toc}{\contentsline {subsection}{Availability}{1}{section*.5}}
\newlabel{conditions-of-use}{{}{1}{Conditions of use}{section*.6}{}}
\@writefile{toc}{\contentsline {subsection}{Conditions of use}{1}{section*.6}}
\BKM@entry{id=5,dest={73656374696F6E2A2E37},srcline={92}}{446973636C61696D6572}
\BKM@entry{id=6,dest={73656374696F6E2A2E38},srcline={99}}{52756E20636F6D6D616E647320616E6420737065632066696C65}
\gdef \LT@i {\LT@entry 
    {1}{125.58578pt}\LT@entry 
    {1}{283.27805pt}}
\gdef \LT@ii {\LT@entry 
    {1}{125.58578pt}\LT@entry 
    {1}{283.27805pt}}
\gdef \LT@iii {\LT@entry 
    {1}{125.58578pt}\LT@entry 
    {1}{283.27805pt}}
\newlabel{disclaimer}{{}{2}{Disclaimer}{section*.7}{}}
\@writefile{toc}{\contentsline {subsection}{Disclaimer}{2}{section*.7}}
\newlabel{run-commands-and-spec-file}{{}{2}{Run commands and spec file}{section*.8}{}}
\@writefile{toc}{\contentsline {section}{Run commands and spec file}{2}{section*.8}}
\@writefile{lot}{\contentsline {table}{\numberline {1}{Key run paramaters}}{2}{table.1}}
\@writefile{lot}{\contentsline {table}{\numberline {2}{Data import options}}{2}{table.2}}
\@writefile{lot}{\contentsline {table}{\numberline {3}{Additional Options}}{2}{table.3}}
\BKM@entry{id=7,dest={73656374696F6E2A2E39},srcline={257}}{496E7075742066696C6520666F726D617473}
\BKM@entry{id=8,dest={73656374696F6E2A2E3130},srcline={262}}{47656E6F747970652066696C65}
\BKM@entry{id=9,dest={73656374696F6E2A2E3131},srcline={269}}{416C70686147656E65732047656E6F747970652066696C65}
\BKM@entry{id=10,dest={73656374696F6E2A2E3132},srcline={286}}{53657175656E6365207265616420636F756E7473}
\BKM@entry{id=11,dest={73656374696F6E2A2E3133},srcline={307}}{4861706C6F747970652066696C65}
\newlabel{input-file-formats}{{}{3}{Input file formats}{section*.9}{}}
\@writefile{toc}{\contentsline {section}{Input file formats}{3}{section*.9}}
\newlabel{genotype-file}{{}{3}{Genotype file}{section*.10}{}}
\@writefile{toc}{\contentsline {subsection}{Genotype file}{3}{section*.10}}
\newlabel{alphagenes-genotype-file}{{}{3}{AlphaGenes Genotype file}{section*.11}{}}
\@writefile{toc}{\contentsline {subsection}{AlphaGenes Genotype file}{3}{section*.11}}
\newlabel{sequence-read-counts}{{}{3}{Sequence read counts}{section*.12}{}}
\@writefile{toc}{\contentsline {subsection}{Sequence read counts}{3}{section*.12}}
\newlabel{haplotype-file}{{}{3}{Haplotype file}{section*.13}{}}
\@writefile{toc}{\contentsline {subsection}{Haplotype file}{3}{section*.13}}
\BKM@entry{id=12,dest={73656374696F6E2A2E3134},srcline={336}}{50656469677265652066696C65}
\BKM@entry{id=13,dest={73656374696F6E2A2E3135},srcline={352}}{506F74656E7469616C2073697265732066696C65}
\BKM@entry{id=14,dest={73656374696F6E2A2E3136},srcline={370}}{4F75747075742066696C6520666F726D617473}
\BKM@entry{id=15,dest={73656374696F6E2A2E3137},srcline={375}}{4F75747075742066696C65}
\BKM@entry{id=16,dest={73656374696F6E2A2E3138},srcline={396}}{46756C6C206F75747075742066696C65}
\newlabel{pedigree-file}{{}{4}{Pedigree file}{section*.14}{}}
\@writefile{toc}{\contentsline {subsection}{Pedigree file}{4}{section*.14}}
\newlabel{potential-sires-file}{{}{4}{Potential sires file}{section*.15}{}}
\@writefile{toc}{\contentsline {subsection}{Potential sires file}{4}{section*.15}}
\newlabel{output-file-formats}{{}{4}{Output file formats}{section*.16}{}}
\@writefile{toc}{\contentsline {section}{Output file formats}{4}{section*.16}}
\newlabel{output-file}{{}{4}{Output file}{section*.17}{}}
\@writefile{toc}{\contentsline {subsection}{Output file}{4}{section*.17}}
\newlabel{full-output-file}{{}{4}{Full output file}{section*.18}{}}
\@writefile{toc}{\contentsline {subsection}{Full output file}{4}{section*.18}}
